<?xml version="1.0" encoding="UTF-8" standalone="no"?>
<svg
   xmlns:dc="http://purl.org/dc/elements/1.1/"
   xmlns:cc="http://creativecommons.org/ns#"
   xmlns:rdf="http://www.w3.org/1999/02/22-rdf-syntax-ns#"
   xmlns:svg="http://www.w3.org/2000/svg"
   xmlns="http://www.w3.org/2000/svg"
   xmlns:xlink="http://www.w3.org/1999/xlink"
   xmlns:sodipodi="http://sodipodi.sourceforge.net/DTD/sodipodi-0.dtd"
   xmlns:inkscape="http://www.inkscape.org/namespaces/inkscape"
   width="511.99835"
   height="511.99835"
   id="svg2"
   version="1.1"
   inkscape:version="1.0.1 (3bc2e813f5, 2020-09-07, custom)"
   sodipodi:docname="sphvr.svg"
   inkscape:export-filename="/home/bmonkey/workspace/gst/vrsink/data/icon/logos.png"
   inkscape:export-xdpi="90"
   inkscape:export-ydpi="90">
  <defs
     id="defs4">
    <linearGradient
       inkscape:collect="always"
       id="linearGradient1163">
      <stop
         style="stop-color:#ffa000;stop-opacity:1;"
         offset="0"
         id="stop1159" />
      <stop
         style="stop-color:#e91e63;stop-opacity:1"
         offset="1"
         id="stop1161" />
    </linearGradient>
    <linearGradient
       inkscape:collect="always"
       xlink:href="#linearGradient1163"
       id="linearGradient1169"
       x1="-2728.3044"
       y1="2500.8652"
       x2="-2220.5798"
       y2="2503.2791"
       gradientUnits="userSpaceOnUse"
       gradientTransform="translate(1200.7562,241.18884)" />
    <radialGradient
       inkscape:collect="always"
       xlink:href="#linearGradient1163"
       id="radialGradient1182"
       cx="-1272.205"
       cy="2742.054"
       fx="-1272.205"
       fy="2742.054"
       r="255.34329"
       gradientUnits="userSpaceOnUse"
       gradientTransform="matrix(0.83298605,-0.68611366,2.3993694,2.9129887,-6791.6765,-6118.3953)" />
  </defs>
  <sodipodi:namedview
     id="base"
     pagecolor="#ffffff"
     bordercolor="#666666"
     borderopacity="1.0"
     inkscape:pageopacity="0"
     inkscape:pageshadow="2"
     inkscape:zoom="0.175"
     inkscape:cx="4770.1974"
     inkscape:cy="2593.7118"
     inkscape:document-units="px"
     inkscape:current-layer="g4156"
     showgrid="false"
     inkscape:window-width="2560"
     inkscape:window-height="1376"
     inkscape:window-x="1080"
     inkscape:window-y="27"
     inkscape:window-maximized="1"
     fit-margin-top="0"
     fit-margin-left="0"
     fit-margin-right="0"
     fit-margin-bottom="0"
     inkscape:document-rotation="0" />
  <metadata
     id="metadata7">
    <rdf:RDF>
      <cc:Work
         rdf:about="">
        <dc:format>image/svg+xml</dc:format>
        <dc:type
           rdf:resource="http://purl.org/dc/dcmitype/StillImage" />
        <dc:title />
      </cc:Work>
    </rdf:RDF>
  </metadata>
  <g
     inkscape:label="Layer 1"
     inkscape:groupmode="layer"
     id="layer1"
     transform="translate(1954.1212,-311.0659)">
    <g
       id="g4156"
       transform="translate(-26.64241,0.21137729)">
      <circle
         r="255.34329"
         cy="1450.9546"
         cx="1821.8491"
         id="path2985-2-4"
         style="fill:#ffa000;fill-opacity:1;stroke:none;stroke-width:47.742;stroke-linecap:round;stroke-linejoin:round;stroke-miterlimit:4;stroke-dasharray:none;stroke-opacity:1" />
      <ellipse
         ry="246.27115"
         rx="210.91582"
         id="path2985-2-9"
         style="fill:#000000;fill-opacity:1;stroke:none;stroke-width:47.742;stroke-linecap:round;stroke-linejoin:round;stroke-miterlimit:4;stroke-dasharray:none;stroke-opacity:1"
         cx="1793.5627"
         cy="1450.9546" />
      <g
         id="flowRoot3755-9"
         style="font-style:normal;font-variant:normal;font-weight:bold;font-stretch:normal;font-size:40px;line-height:125%;font-family:Cantarell;-inkscape-font-specification:'Cantarell Bold';text-align:center;letter-spacing:0px;word-spacing:0px;text-anchor:middle;fill:#ffffff;fill-opacity:1;stroke:none"
         transform="matrix(2.6841739,0,0,2.6841739,3012.8186,462.03707)">
        <path
           inkscape:connector-curvature="0"
           id="path4164"
           style="fill:#ffffff"
           d="m -505.1841,358.62527 c 2.84,0 4.72,0.64 7,1.52 l 1.64,-4.36 -0.56,-0.2 c -2.52,-0.92 -4.72,-1.48 -8.24,-1.48 -5.56,0 -10.44,2.52 -10.44,7.88 0,5.56 4.44,7.08 8.8,8.4 2.28,0.68 6.44,1.92 6.44,4.16 0,2.72 -3.36,3.68 -6.32,3.68 -2,0 -4.52,-0.56 -7.6,-1.72 l -0.76,-0.32 -1.68,4.28 0.64,0.32 c 3.12,1.2 5.16,1.96 9,1.96 6.28,0 11.64,-2.36 11.64,-8.2 0,-5.52 -4.52,-7.04 -8.88,-8.4 -2.12,-0.64 -6.36,-2 -6.36,-3.96 0,-2.64 2.8,-3.56 5.68,-3.56 z" />
        <path
           inkscape:connector-curvature="0"
           id="path4166"
           style="fill:#ffffff"
           d="m -485.26035,371.58527 c 7.4,0 13.44,-1.48 13.44,-8.72 0,-5.48 -3.84,-8.2 -11.48,-8.2 h -9.16 v 27.68 h 4.92 v -10.76 z m 8.4,-8.52 c 0,3.72 -3.88,4 -8.2,4 h -2.48 v -7.88 h 3.72 c 3.68,0 6.96,0.48 6.96,3.88 z" />
        <path
           inkscape:connector-curvature="0"
           id="path4168"
           style="fill:#ffffff"
           d="m -449.10848,354.66527 v 10.8 h -13.36 v -10.8 h -4.92 v 27.68 h 4.92 v -12.36 h 13.36 v 12.36 h 4.92 v -27.68 z" />
        <path
           inkscape:connector-curvature="0"
           id="path4170"
           style="fill:#ffffff"
           d="m -441.36035,354.66527 10.12,27.68 h 5.84 l 9.6,-27.68 h -5.32 l -7,22.4 -7.68,-22.4 z" />
        <path
           inkscape:connector-curvature="0"
           id="path4172"
           style="fill:#ffffff"
           d="m -413.01348,382.34527 h 4.92 v -10.76 h 4.48 l 6.4,10.76 h 5.64 l -7,-11.56 c 4.12,-1.32 6.2,-4 6.2,-7.92 0,-5.48 -3.8,-8.2 -11.48,-8.2 h -9.16 z m 15.6,-19.28 c 0,3.72 -3.88,4 -8.2,4 h -2.48 v -7.88 h 3.72 c 3.72,0 6.96,0.48 6.96,3.88 z" />
      </g>
      <g
         id="flowRoot3755-9-0"
         style="font-style:normal;font-variant:normal;font-weight:bold;font-stretch:normal;font-size:40px;line-height:125%;font-family:Cantarell;-inkscape-font-specification:'Cantarell Bold';text-align:center;letter-spacing:0px;word-spacing:0px;text-anchor:middle;fill:#ffffff;fill-opacity:1;stroke:none"
         transform="matrix(2.6841739,0,0,2.6841739,-947.50865,-620.35033)">
        <flowRoot
           xml:space="preserve"
           id="flowRoot4532"
           style="font-style:normal;font-weight:normal;line-height:0.01%;font-family:sans-serif;letter-spacing:0px;word-spacing:0px;fill:#000000;fill-opacity:1;stroke:none;stroke-width:1px;stroke-linecap:butt;stroke-linejoin:miter;stroke-opacity:1"><flowRegion
             id="flowRegion4534"><rect
               id="rect4536"
               width="721.42859"
               height="738.57141"
               x="-732.85712"
               y="-116.57307" /></flowRegion><flowPara
             id="flowPara4538"
             style="font-size:40px;line-height:1.25"> </flowPara></flowRoot>
      </g>
      <circle
         r="255.34329"
         cy="1847.8126"
         cx="3157.2783"
         id="path2985-2-4-3"
         style="fill:#ffa000;fill-opacity:1;stroke:none;stroke-width:47.742;stroke-linecap:round;stroke-linejoin:round;stroke-miterlimit:4;stroke-dasharray:none;stroke-opacity:1" />
      <g
         id="g920"
         transform="translate(3521.2829,935.88914)">
        <circle
           r="173.8764"
           cy="911.9234"
           cx="-282.5376"
           id="path2985-2-4-3-9"
           style="fill:#000000;fill-opacity:1;stroke:none;stroke-width:32.51;stroke-linecap:round;stroke-linejoin:round;stroke-miterlimit:4;stroke-dasharray:none;stroke-opacity:1" />
        <g
           id="flowRoot3755-9-7"
           style="font-style:normal;font-variant:normal;font-weight:bold;font-stretch:normal;font-size:40px;line-height:125%;font-family:Cantarell;-inkscape-font-specification:'Cantarell Bold';text-align:center;letter-spacing:0px;word-spacing:0px;text-anchor:middle;fill:#ffffff;fill-opacity:1;stroke:none"
           transform="matrix(2.2854269,0,0,2.2854269,755.59195,69.914378)">
          <path
             inkscape:connector-curvature="0"
             id="path4164-5"
             style="fill:#ffffff"
             d="m -505.1841,358.62527 c 2.84,0 4.72,0.64 7,1.52 l 1.64,-4.36 -0.56,-0.2 c -2.52,-0.92 -4.72,-1.48 -8.24,-1.48 -5.56,0 -10.44,2.52 -10.44,7.88 0,5.56 4.44,7.08 8.8,8.4 2.28,0.68 6.44,1.92 6.44,4.16 0,2.72 -3.36,3.68 -6.32,3.68 -2,0 -4.52,-0.56 -7.6,-1.72 l -0.76,-0.32 -1.68,4.28 0.64,0.32 c 3.12,1.2 5.16,1.96 9,1.96 6.28,0 11.64,-2.36 11.64,-8.2 0,-5.52 -4.52,-7.04 -8.88,-8.4 -2.12,-0.64 -6.36,-2 -6.36,-3.96 0,-2.64 2.8,-3.56 5.68,-3.56 z" />
          <path
             inkscape:connector-curvature="0"
             id="path4166-3"
             style="fill:#ffffff"
             d="m -485.26035,371.58527 c 7.4,0 13.44,-1.48 13.44,-8.72 0,-5.48 -3.84,-8.2 -11.48,-8.2 h -9.16 v 27.68 h 4.92 v -10.76 z m 8.4,-8.52 c 0,3.72 -3.88,4 -8.2,4 h -2.48 v -7.88 h 3.72 c 3.68,0 6.96,0.48 6.96,3.88 z" />
          <path
             inkscape:connector-curvature="0"
             id="path4168-5"
             style="fill:#ffffff"
             d="m -449.10848,354.66527 v 10.8 h -13.36 v -10.8 h -4.92 v 27.68 h 4.92 v -12.36 h 13.36 v 12.36 h 4.92 v -27.68 z" />
          <path
             inkscape:connector-curvature="0"
             id="path4170-6"
             style="fill:#ffffff"
             d="m -441.36035,354.66527 10.12,27.68 h 5.84 l 9.6,-27.68 h -5.32 l -7,22.4 -7.68,-22.4 z" />
          <path
             inkscape:connector-curvature="0"
             id="path4172-2"
             style="fill:#ffffff"
             d="m -413.01348,382.34527 h 4.92 v -10.76 h 4.48 l 6.4,10.76 h 5.64 l -7,-11.56 c 4.12,-1.32 6.2,-4 6.2,-7.92 0,-5.48 -3.8,-8.2 -11.48,-8.2 h -9.16 z m 15.6,-19.28 c 0,3.72 -3.88,4 -8.2,4 h -2.48 v -7.88 h 3.72 c 3.72,0 6.96,0.48 6.96,3.88 z" />
        </g>
      </g>
      <circle
         r="255.34329"
         cy="2567.8125"
         cx="3220.1355"
         id="path2985-2-4-3-1"
         style="fill:#000000;fill-opacity:1;stroke:none;stroke-width:47.742;stroke-linecap:round;stroke-linejoin:round;stroke-miterlimit:4;stroke-dasharray:none;stroke-opacity:1" />
      <g
         id="g920-2"
         transform="translate(3584.14,1655.8891)"
         style="font-variation-settings:normal;opacity:1;vector-effect:none;fill:#ffa000;fill-opacity:1;stroke:none;stroke-width:47.742;stroke-linecap:round;stroke-linejoin:round;stroke-miterlimit:4;stroke-dasharray:none;stroke-dashoffset:0;stroke-opacity:1;stop-color:#000000;stop-opacity:1">
        <circle
           r="173.8764"
           cy="911.9234"
           cx="-282.5376"
           id="path2985-2-4-3-9-7"
           style="font-variation-settings:normal;vector-effect:none;fill:#ffa000;fill-opacity:1;stroke:none;stroke-width:47.742;stroke-linecap:round;stroke-linejoin:round;stroke-miterlimit:4;stroke-dasharray:none;stroke-dashoffset:0;stroke-opacity:1;stop-color:#000000;stop-opacity:1" />
        <g
           id="flowRoot3755-9-7-0"
           style="font-style:normal;font-variant:normal;font-weight:bold;font-stretch:normal;font-size:40px;line-height:125%;font-family:Cantarell;-inkscape-font-specification:'Cantarell Bold';font-variation-settings:normal;text-align:center;letter-spacing:0px;word-spacing:0px;text-anchor:middle;vector-effect:none;fill:#ffffff;fill-opacity:1;stroke:none;stroke-width:20.8898;stroke-linecap:round;stroke-linejoin:round;stroke-miterlimit:4;stroke-dasharray:none;stroke-dashoffset:0;stroke-opacity:1;stop-color:#000000;stop-opacity:1"
           transform="matrix(2.2854269,0,0,2.2854269,755.59195,69.914378)">
          <path
             inkscape:connector-curvature="0"
             id="path4164-5-9"
             style="font-variation-settings:normal;vector-effect:none;fill:#ffffff;fill-opacity:1;stroke:none;stroke-width:20.8898;stroke-linecap:round;stroke-linejoin:round;stroke-miterlimit:4;stroke-dasharray:none;stroke-dashoffset:0;stroke-opacity:1;stop-color:#000000;stop-opacity:1"
             d="m -505.1841,358.62527 c 2.84,0 4.72,0.64 7,1.52 l 1.64,-4.36 -0.56,-0.2 c -2.52,-0.92 -4.72,-1.48 -8.24,-1.48 -5.56,0 -10.44,2.52 -10.44,7.88 0,5.56 4.44,7.08 8.8,8.4 2.28,0.68 6.44,1.92 6.44,4.16 0,2.72 -3.36,3.68 -6.32,3.68 -2,0 -4.52,-0.56 -7.6,-1.72 l -0.76,-0.32 -1.68,4.28 0.64,0.32 c 3.12,1.2 5.16,1.96 9,1.96 6.28,0 11.64,-2.36 11.64,-8.2 0,-5.52 -4.52,-7.04 -8.88,-8.4 -2.12,-0.64 -6.36,-2 -6.36,-3.96 0,-2.64 2.8,-3.56 5.68,-3.56 z" />
          <path
             inkscape:connector-curvature="0"
             id="path4166-3-3"
             style="font-variation-settings:normal;vector-effect:none;fill:#ffffff;fill-opacity:1;stroke:none;stroke-width:20.8898;stroke-linecap:round;stroke-linejoin:round;stroke-miterlimit:4;stroke-dasharray:none;stroke-dashoffset:0;stroke-opacity:1;stop-color:#000000;stop-opacity:1"
             d="m -485.26035,371.58527 c 7.4,0 13.44,-1.48 13.44,-8.72 0,-5.48 -3.84,-8.2 -11.48,-8.2 h -9.16 v 27.68 h 4.92 v -10.76 z m 8.4,-8.52 c 0,3.72 -3.88,4 -8.2,4 h -2.48 v -7.88 h 3.72 c 3.68,0 6.96,0.48 6.96,3.88 z" />
          <path
             inkscape:connector-curvature="0"
             id="path4168-5-6"
             style="font-variation-settings:normal;vector-effect:none;fill:#ffffff;fill-opacity:1;stroke:none;stroke-width:20.8898;stroke-linecap:round;stroke-linejoin:round;stroke-miterlimit:4;stroke-dasharray:none;stroke-dashoffset:0;stroke-opacity:1;stop-color:#000000;stop-opacity:1"
             d="m -449.10848,354.66527 v 10.8 h -13.36 v -10.8 h -4.92 v 27.68 h 4.92 v -12.36 h 13.36 v 12.36 h 4.92 v -27.68 z" />
          <path
             inkscape:connector-curvature="0"
             id="path4170-6-0"
             style="font-variation-settings:normal;vector-effect:none;fill:#ffffff;fill-opacity:1;stroke:none;stroke-width:20.8898;stroke-linecap:round;stroke-linejoin:round;stroke-miterlimit:4;stroke-dasharray:none;stroke-dashoffset:0;stroke-opacity:1;stop-color:#000000;stop-opacity:1"
             d="m -441.36035,354.66527 10.12,27.68 h 5.84 l 9.6,-27.68 h -5.32 l -7,22.4 -7.68,-22.4 z" />
          <path
             inkscape:connector-curvature="0"
             id="path4172-2-6"
             style="font-variation-settings:normal;vector-effect:none;fill:#ffffff;fill-opacity:1;stroke:none;stroke-width:20.8898;stroke-linecap:round;stroke-linejoin:round;stroke-miterlimit:4;stroke-dasharray:none;stroke-dashoffset:0;stroke-opacity:1;stop-color:#000000;stop-opacity:1"
             d="m -413.01348,382.34527 h 4.92 v -10.76 h 4.48 l 6.4,10.76 h 5.64 l -7,-11.56 c 4.12,-1.32 6.2,-4 6.2,-7.92 0,-5.48 -3.8,-8.2 -11.48,-8.2 h -9.16 z m 15.6,-19.28 c 0,3.72 -3.88,4 -8.2,4 h -2.48 v -7.88 h 3.72 c 3.72,0 6.96,0.48 6.96,3.88 z" />
        </g>
        <circle
           r="255.34329"
           cy="893.35199"
           cx="-1572.5758"
           id="path2985-2-4-3-6"
           style="fill:#ffa000;fill-opacity:1;stroke:none;stroke-width:47.742;stroke-linecap:round;stroke-linejoin:round;stroke-miterlimit:4;stroke-dasharray:none;stroke-opacity:1" />
        <g
           id="g920-1"
           transform="translate(-1290.0382,-78.347299)">
          <ellipse
             cy="873.24005"
             cx="-287.17227"
             id="path2985-2-4-3-9-8"
             style="fill:#000000;fill-opacity:1;stroke:none;stroke-width:28.2818;stroke-linecap:round;stroke-linejoin:round;stroke-miterlimit:4;stroke-dasharray:none;stroke-opacity:1"
             rx="169.24174"
             ry="135.19307" />
          <g
             id="flowRoot3755-9-7-7"
             style="font-style:normal;font-variant:normal;font-weight:bold;font-stretch:normal;font-size:40px;line-height:125%;font-family:Cantarell;-inkscape-font-specification:'Cantarell Bold';text-align:center;letter-spacing:0px;word-spacing:0px;text-anchor:middle;fill:#ffffff;fill-opacity:1;stroke:none"
             transform="matrix(2.2854269,0,0,2.2854269,748.32074,12.107894)">
            <path
               inkscape:connector-curvature="0"
               id="path4164-5-92"
               style="fill:#ffffff"
               d="m -505.1841,358.62527 c 2.84,0 4.72,0.64 7,1.52 l 1.64,-4.36 -0.56,-0.2 c -2.52,-0.92 -4.72,-1.48 -8.24,-1.48 -5.56,0 -10.44,2.52 -10.44,7.88 0,5.56 4.44,7.08 8.8,8.4 2.28,0.68 6.44,1.92 6.44,4.16 0,2.72 -3.36,3.68 -6.32,3.68 -2,0 -4.52,-0.56 -7.6,-1.72 l -0.76,-0.32 -1.68,4.28 0.64,0.32 c 3.12,1.2 5.16,1.96 9,1.96 6.28,0 11.64,-2.36 11.64,-8.2 0,-5.52 -4.52,-7.04 -8.88,-8.4 -2.12,-0.64 -6.36,-2 -6.36,-3.96 0,-2.64 2.8,-3.56 5.68,-3.56 z" />
            <path
               inkscape:connector-curvature="0"
               id="path4166-3-0"
               style="fill:#ffffff"
               d="m -485.26035,371.58527 c 7.4,0 13.44,-1.48 13.44,-8.72 0,-5.48 -3.84,-8.2 -11.48,-8.2 h -9.16 v 27.68 h 4.92 v -10.76 z m 8.4,-8.52 c 0,3.72 -3.88,4 -8.2,4 h -2.48 v -7.88 h 3.72 c 3.68,0 6.96,0.48 6.96,3.88 z" />
            <path
               inkscape:connector-curvature="0"
               id="path4168-5-2"
               style="fill:#ffffff"
               d="m -449.10848,354.66527 v 10.8 h -13.36 v -10.8 h -4.92 v 27.68 h 4.92 v -12.36 h 13.36 v 12.36 h 4.92 v -27.68 z" />
            <path
               inkscape:connector-curvature="0"
               id="path4170-6-3"
               style="fill:#ffffff"
               d="m -441.36035,354.66527 10.12,27.68 h 5.84 l 9.6,-27.68 h -5.32 l -7,22.4 -7.68,-22.4 z" />
            <path
               inkscape:connector-curvature="0"
               id="path4172-2-7"
               style="fill:#ffffff"
               d="m -413.01348,382.34527 h 4.92 v -10.76 h 4.48 l 6.4,10.76 h 5.64 l -7,-11.56 c 4.12,-1.32 6.2,-4 6.2,-7.92 0,-5.48 -3.8,-8.2 -11.48,-8.2 h -9.16 z m 15.6,-19.28 c 0,3.72 -3.88,4 -8.2,4 h -2.48 v -7.88 h 3.72 c 3.72,0 6.96,0.48 6.96,3.88 z" />
          </g>
        </g>
      </g>
      <circle
         r="255.34329"
         cy="2687.9609"
         cx="4226.5918"
         id="path2985-2-4-3-5"
         style="fill:#ffa000;fill-opacity:1;stroke:none;stroke-width:47.742;stroke-linecap:round;stroke-linejoin:round;stroke-miterlimit:4;stroke-dasharray:none;stroke-opacity:1" />
      <ellipse
         cy="2687.9609"
         cx="4197.4985"
         id="path2985-2-4-3-5-2"
         style="fill:#000000;fill-opacity:1;stroke:none;stroke-width:41.2098;stroke-linecap:round;stroke-linejoin:round;stroke-miterlimit:4;stroke-dasharray:none;stroke-opacity:1"
         rx="190.25011"
         ry="255.34329" />
      <g
         id="flowRoot3755-9-7-2"
         style="font-style:normal;font-variant:normal;font-weight:bold;font-stretch:normal;font-size:40px;line-height:125%;font-family:Cantarell;-inkscape-font-specification:'Cantarell Bold';text-align:center;letter-spacing:0px;word-spacing:0px;text-anchor:middle;fill:#ffffff;fill-opacity:1;stroke:none"
         transform="matrix(2.5869412,0,0,2.5869412,5372.5875,1734.8663)">
        <path
           inkscape:connector-curvature="0"
           id="path4164-5-8"
           style="fill:#ffffff"
           d="m -505.1841,358.62527 c 2.84,0 4.72,0.64 7,1.52 l 1.64,-4.36 -0.56,-0.2 c -2.52,-0.92 -4.72,-1.48 -8.24,-1.48 -5.56,0 -10.44,2.52 -10.44,7.88 0,5.56 4.44,7.08 8.8,8.4 2.28,0.68 6.44,1.92 6.44,4.16 0,2.72 -3.36,3.68 -6.32,3.68 -2,0 -4.52,-0.56 -7.6,-1.72 l -0.76,-0.32 -1.68,4.28 0.64,0.32 c 3.12,1.2 5.16,1.96 9,1.96 6.28,0 11.64,-2.36 11.64,-8.2 0,-5.52 -4.52,-7.04 -8.88,-8.4 -2.12,-0.64 -6.36,-2 -6.36,-3.96 0,-2.64 2.8,-3.56 5.68,-3.56 z" />
        <path
           inkscape:connector-curvature="0"
           id="path4166-3-9"
           style="fill:#ffffff"
           d="m -485.26035,371.58527 c 7.4,0 13.44,-1.48 13.44,-8.72 0,-5.48 -3.84,-8.2 -11.48,-8.2 h -9.16 v 27.68 h 4.92 v -10.76 z m 8.4,-8.52 c 0,3.72 -3.88,4 -8.2,4 h -2.48 v -7.88 h 3.72 c 3.68,0 6.96,0.48 6.96,3.88 z" />
        <path
           inkscape:connector-curvature="0"
           id="path4168-5-7"
           style="fill:#ffffff"
           d="m -449.10848,354.66527 v 10.8 h -13.36 v -10.8 h -4.92 v 27.68 h 4.92 v -12.36 h 13.36 v 12.36 h 4.92 v -27.68 z" />
        <path
           inkscape:connector-curvature="0"
           id="path4170-6-36"
           style="fill:#ffffff"
           d="m -441.36035,354.66527 10.12,27.68 h 5.84 l 9.6,-27.68 h -5.32 l -7,22.4 -7.68,-22.4 z" />
        <path
           inkscape:connector-curvature="0"
           id="path4172-2-1"
           style="fill:#ffffff"
           d="m -413.01348,382.34527 h 4.92 v -10.76 h 4.48 l 6.4,10.76 h 5.64 l -7,-11.56 c 4.12,-1.32 6.2,-4 6.2,-7.92 0,-5.48 -3.8,-8.2 -11.48,-8.2 h -9.16 z m 15.6,-19.28 c 0,3.72 -3.88,4 -8.2,4 h -2.48 v -7.88 h 3.72 c 3.72,0 6.96,0.48 6.96,3.88 z" />
      </g>
      <circle
         r="255.34329"
         cy="3632.0981"
         cx="3400.1355"
         id="path2985-2-4-3-5-9"
         style="fill:#ffa000;fill-opacity:1;stroke:none;stroke-width:47.742;stroke-linecap:round;stroke-linejoin:round;stroke-miterlimit:4;stroke-dasharray:none;stroke-opacity:1" />
      <g
         id="g1118"
         transform="translate(3522.4218,884.10087)">
        <ellipse
           cy="2747.9973"
           cx="-122.28622"
           id="path2985-2-4-3-5-2-3"
           style="fill:#000000;fill-opacity:1;stroke:none;stroke-width:41.2098;stroke-linecap:round;stroke-linejoin:round;stroke-miterlimit:4;stroke-dasharray:none;stroke-opacity:1"
           rx="190.25011"
           ry="255.34329" />
        <g
           id="flowRoot3755-9-7-2-1"
           style="font-style:normal;font-variant:normal;font-weight:bold;font-stretch:normal;font-size:40px;line-height:125%;font-family:Cantarell;-inkscape-font-specification:'Cantarell Bold';text-align:center;letter-spacing:0px;word-spacing:0px;text-anchor:middle;fill:#ffffff;fill-opacity:1;stroke:none"
           transform="matrix(2.5869412,0,0,2.5869412,1052.8027,1794.9029)">
          <path
             inkscape:connector-curvature="0"
             id="path4164-5-8-9"
             style="fill:#ffffff"
             d="m -505.1841,358.62527 c 2.84,0 4.72,0.64 7,1.52 l 1.64,-4.36 -0.56,-0.2 c -2.52,-0.92 -4.72,-1.48 -8.24,-1.48 -5.56,0 -10.44,2.52 -10.44,7.88 0,5.56 4.44,7.08 8.8,8.4 2.28,0.68 6.44,1.92 6.44,4.16 0,2.72 -3.36,3.68 -6.32,3.68 -2,0 -4.52,-0.56 -7.6,-1.72 l -0.76,-0.32 -1.68,4.28 0.64,0.32 c 3.12,1.2 5.16,1.96 9,1.96 6.28,0 11.64,-2.36 11.64,-8.2 0,-5.52 -4.52,-7.04 -8.88,-8.4 -2.12,-0.64 -6.36,-2 -6.36,-3.96 0,-2.64 2.8,-3.56 5.68,-3.56 z" />
          <path
             inkscape:connector-curvature="0"
             id="path4166-3-9-4"
             style="fill:#ffffff"
             d="m -485.26035,371.58527 c 7.4,0 13.44,-1.48 13.44,-8.72 0,-5.48 -3.84,-8.2 -11.48,-8.2 h -9.16 v 27.68 h 4.92 v -10.76 z m 8.4,-8.52 c 0,3.72 -3.88,4 -8.2,4 h -2.48 v -7.88 h 3.72 c 3.68,0 6.96,0.48 6.96,3.88 z" />
          <path
             inkscape:connector-curvature="0"
             id="path4168-5-7-7"
             style="fill:#ffffff"
             d="m -449.10848,354.66527 v 10.8 h -13.36 v -10.8 h -4.92 v 27.68 h 4.92 v -12.36 h 13.36 v 12.36 h 4.92 v -27.68 z" />
          <path
             inkscape:connector-curvature="0"
             id="path4170-6-36-8"
             style="fill:#ffffff"
             d="m -441.36035,354.66527 10.12,27.68 h 5.84 l 9.6,-27.68 h -5.32 l -7,22.4 -7.68,-22.4 z" />
          <path
             inkscape:connector-curvature="0"
             id="path4172-2-1-4"
             style="fill:#ffffff"
             d="m -413.01348,382.34527 h 4.92 v -10.76 h 4.48 l 6.4,10.76 h 5.64 l -7,-11.56 c 4.12,-1.32 6.2,-4 6.2,-7.92 0,-5.48 -3.8,-8.2 -11.48,-8.2 h -9.16 z m 15.6,-19.28 c 0,3.72 -3.88,4 -8.2,4 h -2.48 v -7.88 h 3.72 c 3.72,0 6.96,0.48 6.96,3.88 z" />
        </g>
      </g>
      <g
         id="g1180"
         transform="translate(3493.3287,884.10087)">
        <circle
           r="255.34329"
           cy="2742.054"
           cx="-1272.205"
           id="path2985-2-4-3-5-9-5"
           style="fill:url(#linearGradient1169);fill-opacity:1;stroke:none;stroke-width:47.742;stroke-linecap:round;stroke-linejoin:round;stroke-miterlimit:4;stroke-dasharray:none;stroke-opacity:1" />
        <g
           id="g1118-0"
           transform="translate(-1149.9188,-5.9432397)">
          <ellipse
             cy="2747.9973"
             cx="-122.28622"
             id="path2985-2-4-3-5-2-3-3"
             style="fill:#000000;fill-opacity:1;stroke:none;stroke-width:41.2098;stroke-linecap:round;stroke-linejoin:round;stroke-miterlimit:4;stroke-dasharray:none;stroke-opacity:1"
             rx="190.25011"
             ry="255.34329" />
          <g
             id="flowRoot3755-9-7-2-1-6"
             style="font-style:normal;font-variant:normal;font-weight:bold;font-stretch:normal;font-size:40px;line-height:125%;font-family:Cantarell;-inkscape-font-specification:'Cantarell Bold';text-align:center;letter-spacing:0px;word-spacing:0px;text-anchor:middle;fill:#ffffff;fill-opacity:1;stroke:none"
             transform="matrix(2.5869412,0,0,2.5869412,1052.8027,1794.9029)">
            <path
               inkscape:connector-curvature="0"
               id="path4164-5-8-9-1"
               style="fill:#ffffff"
               d="m -505.1841,358.62527 c 2.84,0 4.72,0.64 7,1.52 l 1.64,-4.36 -0.56,-0.2 c -2.52,-0.92 -4.72,-1.48 -8.24,-1.48 -5.56,0 -10.44,2.52 -10.44,7.88 0,5.56 4.44,7.08 8.8,8.4 2.28,0.68 6.44,1.92 6.44,4.16 0,2.72 -3.36,3.68 -6.32,3.68 -2,0 -4.52,-0.56 -7.6,-1.72 l -0.76,-0.32 -1.68,4.28 0.64,0.32 c 3.12,1.2 5.16,1.96 9,1.96 6.28,0 11.64,-2.36 11.64,-8.2 0,-5.52 -4.52,-7.04 -8.88,-8.4 -2.12,-0.64 -6.36,-2 -6.36,-3.96 0,-2.64 2.8,-3.56 5.68,-3.56 z" />
            <path
               inkscape:connector-curvature="0"
               id="path4166-3-9-4-0"
               style="fill:#ffffff"
               d="m -485.26035,371.58527 c 7.4,0 13.44,-1.48 13.44,-8.72 0,-5.48 -3.84,-8.2 -11.48,-8.2 h -9.16 v 27.68 h 4.92 v -10.76 z m 8.4,-8.52 c 0,3.72 -3.88,4 -8.2,4 h -2.48 v -7.88 h 3.72 c 3.68,0 6.96,0.48 6.96,3.88 z" />
            <path
               inkscape:connector-curvature="0"
               id="path4168-5-7-7-6"
               style="fill:#ffffff"
               d="m -449.10848,354.66527 v 10.8 h -13.36 v -10.8 h -4.92 v 27.68 h 4.92 v -12.36 h 13.36 v 12.36 h 4.92 v -27.68 z" />
            <path
               inkscape:connector-curvature="0"
               id="path4170-6-36-8-3"
               style="fill:#ffffff"
               d="m -441.36035,354.66527 10.12,27.68 h 5.84 l 9.6,-27.68 h -5.32 l -7,22.4 -7.68,-22.4 z" />
            <path
               inkscape:connector-curvature="0"
               id="path4172-2-1-4-2"
               style="fill:#ffffff"
               d="m -413.01348,382.34527 h 4.92 v -10.76 h 4.48 l 6.4,10.76 h 5.64 l -7,-11.56 c 4.12,-1.32 6.2,-4 6.2,-7.92 0,-5.48 -3.8,-8.2 -11.48,-8.2 h -9.16 z m 15.6,-19.28 c 0,3.72 -3.88,4 -8.2,4 h -2.48 v -7.88 h 3.72 c 3.72,0 6.96,0.48 6.96,3.88 z" />
          </g>
        </g>
      </g>
      <g
         id="g1180-1"
         transform="translate(2770.0511,874.81065)">
        <circle
           r="255.34329"
           cy="2742.054"
           cx="-1272.205"
           id="path2985-2-4-3-5-9-5-5"
           style="fill:url(#radialGradient1182);fill-opacity:1;stroke:none;stroke-width:47.742;stroke-linecap:round;stroke-linejoin:round;stroke-miterlimit:4;stroke-dasharray:none;stroke-opacity:1" />
        <g
           id="g1118-0-5"
           transform="translate(-1149.9188,-5.9432397)">
          <ellipse
             cy="2747.9973"
             cx="-122.28622"
             id="path2985-2-4-3-5-2-3-3-4"
             style="fill:#000000;fill-opacity:1;stroke:none;stroke-width:41.2098;stroke-linecap:round;stroke-linejoin:round;stroke-miterlimit:4;stroke-dasharray:none;stroke-opacity:1"
             rx="190.25011"
             ry="255.34329" />
          <g
             id="flowRoot3755-9-7-2-1-6-7"
             style="font-style:normal;font-variant:normal;font-weight:bold;font-stretch:normal;font-size:40px;line-height:125%;font-family:Cantarell;-inkscape-font-specification:'Cantarell Bold';text-align:center;letter-spacing:0px;word-spacing:0px;text-anchor:middle;fill:#ffffff;fill-opacity:1;stroke:none"
             transform="matrix(2.5869412,0,0,2.5869412,1052.8027,1794.9029)">
            <path
               inkscape:connector-curvature="0"
               id="path4164-5-8-9-1-6"
               style="fill:#ffffff"
               d="m -505.1841,358.62527 c 2.84,0 4.72,0.64 7,1.52 l 1.64,-4.36 -0.56,-0.2 c -2.52,-0.92 -4.72,-1.48 -8.24,-1.48 -5.56,0 -10.44,2.52 -10.44,7.88 0,5.56 4.44,7.08 8.8,8.4 2.28,0.68 6.44,1.92 6.44,4.16 0,2.72 -3.36,3.68 -6.32,3.68 -2,0 -4.52,-0.56 -7.6,-1.72 l -0.76,-0.32 -1.68,4.28 0.64,0.32 c 3.12,1.2 5.16,1.96 9,1.96 6.28,0 11.64,-2.36 11.64,-8.2 0,-5.52 -4.52,-7.04 -8.88,-8.4 -2.12,-0.64 -6.36,-2 -6.36,-3.96 0,-2.64 2.8,-3.56 5.68,-3.56 z" />
            <path
               inkscape:connector-curvature="0"
               id="path4166-3-9-4-0-5"
               style="fill:#ffffff"
               d="m -485.26035,371.58527 c 7.4,0 13.44,-1.48 13.44,-8.72 0,-5.48 -3.84,-8.2 -11.48,-8.2 h -9.16 v 27.68 h 4.92 v -10.76 z m 8.4,-8.52 c 0,3.72 -3.88,4 -8.2,4 h -2.48 v -7.88 h 3.72 c 3.68,0 6.96,0.48 6.96,3.88 z" />
            <path
               inkscape:connector-curvature="0"
               id="path4168-5-7-7-6-6"
               style="fill:#ffffff"
               d="m -449.10848,354.66527 v 10.8 h -13.36 v -10.8 h -4.92 v 27.68 h 4.92 v -12.36 h 13.36 v 12.36 h 4.92 v -27.68 z" />
            <path
               inkscape:connector-curvature="0"
               id="path4170-6-36-8-3-9"
               style="fill:#ffffff"
               d="m -441.36035,354.66527 10.12,27.68 h 5.84 l 9.6,-27.68 h -5.32 l -7,22.4 -7.68,-22.4 z" />
            <path
               inkscape:connector-curvature="0"
               id="path4172-2-1-4-2-3"
               style="fill:#ffffff"
               d="m -413.01348,382.34527 h 4.92 v -10.76 h 4.48 l 6.4,10.76 h 5.64 l -7,-11.56 c 4.12,-1.32 6.2,-4 6.2,-7.92 0,-5.48 -3.8,-8.2 -11.48,-8.2 h -9.16 z m 15.6,-19.28 c 0,3.72 -3.88,4 -8.2,4 h -2.48 v -7.88 h 3.72 c 3.72,0 6.96,0.48 6.96,3.88 z" />
          </g>
        </g>
      </g>
    </g>
  </g>
</svg>
